{
  "_class": "symbolInstance",
  "do_objectID": "F1B2565B-CEBF-4AF0-8BC5-F0910525D4E7",
  "exportOptions": {
    "_class": "exportOptions",
    "exportFormats": [
    ],
    "includedLayerIds": [
    ],
    "layerOptions": 0,
    "shouldTrim": false
  },
  "frame": {
    "_class": "rect",
    "constrainProportions": true,
    "height": 32,
    "width": 32,
    "x": 488,
    "y": 0
  },
  "horizontalSpacing": 0,
  "isFlippedHorizontal": false,
  "isFlippedVertical": false,
  "isLocked": false,
  "isVisible": true,
  "layerListExpandedType": 0,
  "masterInfluenceEdgeMaxXPadding": 80,
  "masterInfluenceEdgeMaxYPadding": 520,
  "masterInfluenceEdgeMinXPadding": 674,
  "masterInfluenceEdgeMinYPadding": 256,
  "name": "topbar/molecules/admin-btn",
  "nameIsFixed": true,
  "resizingConstraint": 63,
  "resizingType": 0,
  "rotation": 0,
  "shouldBreakMaskChain": false,
  "style": {
    "_class": "style",
    "endDecorationType": 0,
    "miterLimit": 10,
    "startDecorationType": 0
  },
  "symbolID": "BEE39187-E905-45B4-BEF6-F3606230C8E6",
  "verticalSpacing": 0
}