{
  "_class": "artboard",
  "backgroundColor": {
    "_class": "color",
    "alpha": 1,
    "blue": 1,
    "green": 1,
    "red": 1
  },
  "do_objectID": "EC426022-CCB2-4896-8772-A93BF4938DC0",
  "exportOptions": {
    "_class": "exportOptions",
    "exportFormats": [
    ],
    "includedLayerIds": [
    ],
    "layerOptions": 0,
    "shouldTrim": false
  },
  "frame": {
    "_class": "rect",
    "constrainProportions": false,
    "height": 800,
    "width": 1500,
    "x": 4968,
    "y": -5
  },
  "hasBackgroundColor": false,
  "hasClickThrough": true,
  "horizontalRulerData": {
    "_class": "rulerData",
    "base": 0,
    "guides": [
    ]
  },
  "includeBackgroundColorInExport": true,
  "includeInCloudUpload": true,
  "isFlippedHorizontal": false,
  "isFlippedVertical": false,
  "isLocked": false,
  "isVisible": true,
  "layerListExpandedType": 2,
  "layers": [
    {
      "class": "group",
      "id": "1BA5CEFE-739C-4472-8244-951FC8AF4E8A"
    },
    {
      "class": "group",
      "id": "5F6DF6F6-A40B-4996-8616-E9FC5C02C315"
    },
    {
      "class": "group",
      "id": "988C8BF6-C368-40EA-81CA-15148CE8B1FF"
    },
    {
      "class": "group",
      "id": "8F9A46AF-E42B-4F5B-AD2E-C16A86420DAD"
    },
    {
      "class": "group",
      "id": "93986A84-4D58-4053-ABB0-6C550446C663"
    },
    {
      "class": "group",
      "id": "E148F89B-A0EB-40AC-B023-0307B7012879"
    }
  ],
  "name": "Artboard Copy 4",
  "nameIsFixed": false,
  "resizesContent": false,
  "resizingConstraint": 63,
  "resizingType": 0,
  "rotation": 0,
  "shouldBreakMaskChain": false,
  "style": {
    "_class": "style",
    "endDecorationType": 0,
    "miterLimit": 10,
    "startDecorationType": 0
  },
  "verticalRulerData": {
    "_class": "rulerData",
    "base": 0,
    "guides": [
      112
    ]
  }
}