{
  "_class": "shapePath",
  "booleanOperation": -1,
  "do_objectID": "9C62E915-F06A-4AF6-BEDC-2E924CB2E0F6",
  "edited": true,
  "exportOptions": {
    "_class": "exportOptions",
    "exportFormats": [
    ],
    "includedLayerIds": [
    ],
    "layerOptions": 0,
    "shouldTrim": false
  },
  "frame": {
    "_class": "rect",
    "constrainProportions": false,
    "height": 13.31370849898476,
    "width": 13.13420906649039,
    "x": 0.4128389577807796,
    "y": 1.353553390593265
  },
  "isFlippedHorizontal": false,
  "isFlippedVertical": false,
  "isLocked": false,
  "isVisible": true,
  "layerListExpandedType": 0,
  "name": "Path",
  "nameIsFixed": false,
  "path": {
    "_class": "path",
    "isClosed": true,
    "pointRadiusBehaviour": 1,
    "points": [
      {
        "_class": "curvePoint",
        "cornerRadius": 0,
        "curveFrom": "{1.0073331238208545, 0.051331866745981156}",
        "curveMode": 2,
        "curveTo": "{0.94866813325401889, -0.0073331238208544413}",
        "hasCurveFrom": true,
        "hasCurveTo": true,
        "point": "{0.97800062853743663, 0.021999371462563356}"
      },
      {
        "_class": "curvePoint",
        "cornerRadius": 0,
        "curveFrom": "{0.97800062853743663, 0.12822173335977152}",
        "curveMode": 4,
        "curveTo": "{1.0073331238208545, 0.098889238076353705}",
        "hasCurveFrom": false,
        "hasCurveTo": true,
        "point": "{0.97800062853743663, 0.12822173335977152}"
      },
      {
        "_class": "curvePoint",
        "cornerRadius": 0,
        "curveFrom": "{0.098889238076353678, 1.0073331238208545}",
        "curveMode": 4,
        "curveTo": "{0.12822173335977144, 0.97800062853743686}",
        "hasCurveFrom": true,
        "hasCurveTo": false,
        "point": "{0.12822173335977144, 0.97800062853743686}"
      },
      {
        "_class": "curvePoint",
        "cornerRadius": 0,
        "curveFrom": "{-0.0073331238208545228, 0.948668133254019}",
        "curveMode": 2,
        "curveTo": "{0.051331866745981135, 1.0073331238208545}",
        "hasCurveFrom": true,
        "hasCurveTo": true,
        "point": "{0.021999371462563366, 0.97800062853743686}"
      },
      {
        "_class": "curvePoint",
        "cornerRadius": 0,
        "curveFrom": "{0.021999371462563366, 0.87177826664022862}",
        "curveMode": 4,
        "curveTo": "{-0.0073331238208543892, 0.90111076192364636}",
        "hasCurveFrom": false,
        "hasCurveTo": true,
        "point": "{0.021999371462563366, 0.87177826664022862}"
      },
      {
        "_class": "curvePoint",
        "cornerRadius": 0,
        "curveFrom": "{0.90111076192364625, -0.0073331238208544413}",
        "curveMode": 4,
        "curveTo": "{0.87177826664022851, 0.021999371462563356}",
        "hasCurveFrom": true,
        "hasCurveTo": false,
        "point": "{0.87177826664022851, 0.021999371462563356}"
      }
    ]
  },
  "resizingConstraint": 63,
  "resizingType": 0,
  "rotation": 0,
  "shouldBreakMaskChain": false
}