{
  "_class": "group",
  "do_objectID": "DD9C2524-6DAA-481A-A9CC-9BC7A4D7E0A6",
  "exportOptions": {
    "_class": "exportOptions",
    "exportFormats": [
    ],
    "includedLayerIds": [
    ],
    "layerOptions": 0,
    "shouldTrim": false
  },
  "frame": {
    "_class": "rect",
    "constrainProportions": false,
    "height": 440,
    "width": 220,
    "x": 0,
    "y": 0
  },
  "hasClickThrough": false,
  "isFlippedHorizontal": false,
  "isFlippedVertical": false,
  "isLocked": false,
  "isVisible": true,
  "layerListExpandedType": 2,
  "layers": [
    {
      "class": "symbolInstance",
      "id": "FA39C9A3-CAE2-48C5-A039-CA1B87079ECC"
    },
    {
      "class": "symbolInstance",
      "id": "E836700D-A22D-4AA6-8DDB-A288D029DEEB"
    },
    {
      "class": "symbolInstance",
      "id": "E9CEA55D-10D7-4EB2-87AC-4E9F1E4C6F69"
    },
    {
      "class": "symbolInstance",
      "id": "A69F8421-6824-45FB-97C0-FA7C6B74630E"
    },
    {
      "class": "symbolInstance",
      "id": "63C140E0-BEBB-4450-A8D3-3261E7EC9DDB"
    },
    {
      "class": "symbolInstance",
      "id": "70761EE8-CFBF-4DEE-ACF4-254FC96E8685"
    },
    {
      "class": "symbolInstance",
      "id": "432CEC9D-A900-4D89-BFA0-CE9E325E64BF"
    },
    {
      "class": "symbolInstance",
      "id": "2889C3BB-A296-4DC6-9714-F21D169ED44E"
    },
    {
      "class": "symbolInstance",
      "id": "16511174-6C4A-4725-A55F-386ED75E760C"
    },
    {
      "class": "group",
      "id": "6EDD7299-BD65-4FA5-91A0-9485C0912EEE"
    },
    {
      "class": "symbolInstance",
      "id": "711266CF-2F4C-4D33-ADA4-572194418FA0"
    },
    {
      "class": "symbolInstance",
      "id": "61B57090-77ED-4183-B1DE-6A5F9976F650"
    }
  ],
  "name": "top-aligned",
  "nameIsFixed": true,
  "resizingConstraint": 11,
  "resizingType": 0,
  "rotation": 0,
  "shouldBreakMaskChain": false,
  "style": {
    "_class": "style",
    "endDecorationType": 0,
    "miterLimit": 10,
    "startDecorationType": 0
  }
}