{
  "_class": "shapeGroup",
  "clippingMaskMode": 0,
  "do_objectID": "2043E8FE-5EC5-4E32-8CA9-E449F7B49871",
  "exportOptions": {
    "_class": "exportOptions",
    "exportFormats": [
    ],
    "includedLayerIds": [
    ],
    "layerOptions": 0,
    "shouldTrim": false
  },
  "frame": {
    "_class": "rect",
    "constrainProportions": false,
    "height": 4,
    "width": 456,
    "x": 0,
    "y": 0
  },
  "hasClickThrough": false,
  "hasClippingMask": false,
  "isFlippedHorizontal": false,
  "isFlippedVertical": false,
  "isLocked": false,
  "isVisible": true,
  "layerListExpandedType": 1,
  "layers": [
    {
      "class": "rectangle",
      "id": "FDEE10B2-0B14-4131-9498-CBD1D9CA12F6"
    }
  ],
  "name": "Rectangle 5 Copy 2",
  "nameIsFixed": false,
  "resizingConstraint": 63,
  "resizingType": 0,
  "rotation": 0,
  "shouldBreakMaskChain": false,
  "style": {
    "sharedObjectID": "65802A2B-CB02-4F1B-A5DA-C45CA7D3EB92"
  },
  "windingRule": 1
}