{
  "_class": "group",
  "do_objectID": "2682A948-2E25-4EE0-8B3F-1BA60A1FEA79",
  "exportOptions": {
    "_class": "exportOptions",
    "exportFormats": [
    ],
    "includedLayerIds": [
    ],
    "layerOptions": 0,
    "shouldTrim": false
  },
  "frame": {
    "_class": "rect",
    "constrainProportions": false,
    "height": 32,
    "width": 1248,
    "x": 236,
    "y": 112
  },
  "hasClickThrough": false,
  "isFlippedHorizontal": false,
  "isFlippedVertical": false,
  "isLocked": false,
  "isVisible": true,
  "layerListExpandedType": 2,
  "layers": [
    {
      "class": "shapeGroup",
      "id": "2381260F-AB3B-403B-B3E1-54005E96A6B6"
    },
    {
      "class": "text",
      "id": "55BFE183-A30B-4081-8928-D10166535451"
    },
    {
      "class": "text",
      "id": "FCEE9F87-8C2D-444C-B69D-62FF9683D444"
    }
  ],
  "name": "search/filter",
  "nameIsFixed": true,
  "resizingConstraint": 63,
  "resizingType": 0,
  "rotation": 0,
  "shouldBreakMaskChain": false,
  "style": {
    "_class": "style",
    "endDecorationType": 0,
    "miterLimit": 10,
    "startDecorationType": 0
  }
}