{
  "_class": "shapePath",
  "booleanOperation": -1,
  "do_objectID": "AEE8C581-9C57-46DE-9C73-937931CCC4DF",
  "edited": true,
  "exportOptions": {
    "_class": "exportOptions",
    "exportFormats": [
    ],
    "includedLayerIds": [
    ],
    "layerOptions": 0,
    "shouldTrim": false
  },
  "frame": {
    "_class": "rect",
    "constrainProportions": false,
    "height": 11.5627972463359,
    "width": 11.56279724633584,
    "x": 2.218612783760567,
    "y": 2.218612783760568
  },
  "isFlippedHorizontal": false,
  "isFlippedVertical": false,
  "isLocked": false,
  "isVisible": true,
  "layerListExpandedType": 0,
  "name": "Path",
  "nameIsFixed": false,
  "path": {
    "_class": "path",
    "isClosed": true,
    "pointRadiusBehaviour": 1,
    "points": [
      {
        "_class": "curvePoint",
        "cornerRadius": 0,
        "curveFrom": "{0.97190083231295077, 0.56487648198411766}",
        "curveMode": 4,
        "curveTo": "{1.0093663892290168, 0.60234203890018423}",
        "hasCurveFrom": false,
        "hasCurveTo": true,
        "point": "{0.97190083231295077, 0.56487648198411766}"
      },
      {
        "_class": "curvePoint",
        "cornerRadius": 0,
        "curveFrom": "{0.4070243503288335, 0}",
        "curveMode": 1,
        "curveTo": "{0.4070243503288335, 0}",
        "hasCurveFrom": false,
        "hasCurveTo": false,
        "point": "{0.4070243503288335, 0}"
      },
      {
        "_class": "curvePoint",
        "cornerRadius": 0,
        "curveFrom": "{0.051771505893173898, 0.051771505893173191}",
        "curveMode": 1,
        "curveTo": "{0.051771505893173898, 0.051771505893173191}",
        "hasCurveFrom": false,
        "hasCurveTo": false,
        "point": "{0.051771505893173898, 0.051771505893173191}"
      },
      {
        "_class": "curvePoint",
        "cornerRadius": 0,
        "curveFrom": "{0, 0.40702435032883177}",
        "curveMode": 1,
        "curveTo": "{0, 0.40702435032883177}",
        "hasCurveFrom": false,
        "hasCurveTo": false,
        "point": "{0, 0.40702435032883177}"
      },
      {
        "_class": "curvePoint",
        "cornerRadius": 0,
        "curveFrom": "{0.60234203890018445, 1.0093663892290166}",
        "curveMode": 4,
        "curveTo": "{0.56487648198411777, 0.97190083231294999}",
        "hasCurveFrom": true,
        "hasCurveTo": false,
        "point": "{0.56487648198411777, 0.97190083231294999}"
      },
      {
        "_class": "curvePoint",
        "cornerRadius": 0,
        "curveFrom": "{0.7005512654270617, 0.97190083231294966}",
        "curveMode": 4,
        "curveTo": "{0.66308570851099446, 1.0093663892290166}",
        "hasCurveFrom": false,
        "hasCurveTo": true,
        "point": "{0.7005512654270617, 0.97190083231294966}"
      },
      {
        "_class": "curvePoint",
        "cornerRadius": 0,
        "curveFrom": "{1.0093663892290166, 0.66308570851099502}",
        "curveMode": 4,
        "curveTo": "{0.97190083231295044, 0.70055126542706248}",
        "hasCurveFrom": true,
        "hasCurveTo": false,
        "point": "{0.97190083231295044, 0.70055126542706248}"
      }
    ]
  },
  "resizingConstraint": 63,
  "resizingType": 0,
  "rotation": 0,
  "shouldBreakMaskChain": false
}