{
  "_class": "group",
  "do_objectID": "B1B01F8E-FB22-4BA2-B603-5397DA50E4D6",
  "exportOptions": {
    "_class": "exportOptions",
    "exportFormats": [
    ],
    "includedLayerIds": [
    ],
    "layerOptions": 0,
    "shouldTrim": false
  },
  "frame": {
    "_class": "rect",
    "constrainProportions": false,
    "height": 28,
    "width": 527,
    "x": 607,
    "y": 542
  },
  "hasClickThrough": false,
  "isFlippedHorizontal": false,
  "isFlippedVertical": false,
  "isLocked": false,
  "isVisible": true,
  "layerListExpandedType": 2,
  "layers": [
    {
      "class": "shapeGroup",
      "id": "5CE41212-1C6D-4916-B048-E1D0E30351F0"
    },
    {
      "class": "shapeGroup",
      "id": "FF6D4399-3104-4442-8161-B0F77A7B9658"
    },
    {
      "class": "shapeGroup",
      "id": "A0417103-6995-4118-8BEB-4EE3CA2603C0"
    },
    {
      "class": "text",
      "id": "5E6D3125-5A73-4FE4-BF05-5DC510A6C23F"
    }
  ],
  "name": "new_epic copy 7",
  "nameIsFixed": true,
  "resizingConstraint": 63,
  "resizingType": 0,
  "rotation": 0,
  "shouldBreakMaskChain": false,
  "style": {
    "_class": "style",
    "endDecorationType": 0,
    "miterLimit": 10,
    "startDecorationType": 0
  }
}