<?xml version="1.0" encoding="UTF-8"?>
<svg width="32px" height="32px" viewBox="0 0 32 32" version="1.1" xmlns="http://www.w3.org/2000/svg" xmlns:xlink="http://www.w3.org/1999/xlink">
    <!-- Generator: Sketch 62 (91390) - https://sketch.com -->
    <title>icon-self-managed-pricing</title>
    <desc>Created with Sketch.</desc>
    <g id="Buy-Subscription" stroke="none" stroke-width="1" fill="none" fill-rule="evenodd">
        <g id="Buy-Products---v2--2" transform="translate(-488.000000, -162.000000)" fill="#6E49CB" fill-rule="nonzero">
            <g id="global-components/modals/small" transform="translate(464.000000, 81.000000)">
                <g id="Group-5" transform="translate(1.000000, 56.000000)">
                    <g id="icon-self-managed-pricing" transform="translate(23.000000, 25.000000)">
                        <g id="Group-6">
                            <path d="M28.631,0 L3.369,0 C1.512,0 0,1.445 0,3.222 L0,10.779 C0,12.555 1.512,14 3.369,14 L28.631,14 C30.488,14 32,12.555 32,10.778 L32,3.222 C32,1.445 30.488,0 28.631,0 Z M30,10.778 C30,11.452 29.386,12 28.631,12 L3.369,12 C2.614,12 2,11.452 2,10.778 L2,3.222 C2,2.548 2.614,2 3.369,2 L28.631,2 C29.386,2 30,2.548 30,3.222 L30,10.778 Z" id="Shape"></path>
                            <path d="M27,6 L9.82,6 C9.406,4.839 8.306,4 7.004,4 C5.35,4 4.004,5.346 4.004,7 C4.004,8.654 5.35,10 7.004,10 C8.306,10 9.406,9.161 9.82,8 L27,8 C27.553,8 28,7.553 28,7 C28,6.447 27.553,6 27,6 M7,8 C6.448,8 6,7.552 6,7 C6,6.448 6.448,6 7,6 C7.552,6 8,6.448 8,7 C8,7.552 7.552,8 7,8" id="Shape"></path>
                            <path d="M28.631,18 L3.369,18 C1.512,18 0,19.445 0,21.222 L0,28.779 C0,30.555 1.512,32 3.369,32 L28.631,32 C30.488,32 32,30.555 32,28.778 L32,21.221 C32,19.445 30.488,18 28.631,18 Z M30,28.778 C30,29.452 29.386,30 28.631,30 L3.369,30 C2.614,30 2,29.452 2,28.778 L2,21.221 C2,20.548 2.614,20 3.369,20 L28.631,20 C29.386,20 30,20.548 30,21.222 L30,28.778 Z" id="Shape"></path>
                            <path d="M27,24 L9.82,24 C9.406,22.839 8.306,22 7.004,22 C5.35,22 4.004,23.346 4.004,25 C4.004,26.654 5.35,28 7.004,28 C8.306,28 9.406,27.161 9.82,26 L27,26 C27.553,26 28,25.553 28,25 C28,24.447 27.553,24 27,24 M7,26 C6.448,26 6,25.552 6,25 C6,24.448 6.448,24 7,24 C7.552,24 8,24.448 8,25 C8,25.552 7.552,26 7,26" id="Shape"></path>
                        </g>
                    </g>
                </g>
            </g>
        </g>
    </g>
</svg>