{
  "_class": "group",
  "do_objectID": "9408B46A-C7E6-459F-A635-B1097D5D907B",
  "exportOptions": {
    "_class": "exportOptions",
    "exportFormats": [
    ],
    "includedLayerIds": [
    ],
    "layerOptions": 0,
    "shouldTrim": false
  },
  "frame": {
    "_class": "rect",
    "constrainProportions": false,
    "height": 28,
    "width": 527,
    "x": 607,
    "y": 302
  },
  "hasClickThrough": false,
  "isFlippedHorizontal": false,
  "isFlippedVertical": false,
  "isLocked": false,
  "isVisible": true,
  "layerListExpandedType": 2,
  "layers": [
    {
      "class": "shapeGroup",
      "id": "B19BE3B0-16AF-467E-96F7-45BADA755BDF"
    },
    {
      "class": "shapeGroup",
      "id": "6C475CFB-9A8A-41E4-9935-049A653003E3"
    },
    {
      "class": "text",
      "id": "AE79E724-D34F-44CD-B040-ABE80258D7C9"
    }
  ],
  "name": "new_epic",
  "nameIsFixed": true,
  "resizingConstraint": 63,
  "resizingType": 0,
  "rotation": 0,
  "shouldBreakMaskChain": false,
  "style": {
    "_class": "style",
    "endDecorationType": 0,
    "miterLimit": 10,
    "startDecorationType": 0
  }
}