{
  "_class": "symbolInstance",
  "do_objectID": "A465BC65-FA16-4624-B8D1-87DA23B77E48",
  "exportOptions": {
    "_class": "exportOptions",
    "exportFormats": [
    ],
    "includedLayerIds": [
    ],
    "layerOptions": 0,
    "shouldTrim": false
  },
  "frame": {
    "_class": "rect",
    "constrainProportions": false,
    "height": 32,
    "width": 256,
    "x": 0,
    "y": 0
  },
  "horizontalSpacing": 0,
  "isFlippedHorizontal": false,
  "isFlippedVertical": false,
  "isLocked": false,
  "isVisible": true,
  "layerListExpandedType": 0,
  "masterInfluenceEdgeMaxXPadding": 76,
  "masterInfluenceEdgeMaxYPadding": 520,
  "masterInfluenceEdgeMinXPadding": 454,
  "masterInfluenceEdgeMinYPadding": 256,
  "name": "💡search",
  "nameIsFixed": true,
  "resizingConstraint": 63,
  "resizingType": 0,
  "rotation": 0,
  "shouldBreakMaskChain": false,
  "style": {
    "_class": "style",
    "endDecorationType": 0,
    "miterLimit": 10,
    "startDecorationType": 0
  },
  "symbolID": "9DFD29C8-DCD5-493A-8427-1FA1D44BE981",
  "verticalSpacing": 0
}