{
  "_class": "shapePath",
  "booleanOperation": -1,
  "do_objectID": "7F4AC164-D0F3-49BC-9EF4-E06F491C862D",
  "edited": true,
  "exportOptions": {
    "_class": "exportOptions",
    "exportFormats": [
    ],
    "includedLayerIds": [
    ],
    "layerOptions": 0,
    "shouldTrim": false
  },
  "frame": {
    "_class": "rect",
    "constrainProportions": false,
    "height": 15.75912887893758,
    "width": 16,
    "x": -1.387778780781446e-17,
    "y": 0
  },
  "isFlippedHorizontal": false,
  "isFlippedVertical": false,
  "isLocked": false,
  "isVisible": true,
  "layerListExpandedType": 0,
  "name": "Path",
  "nameIsFixed": false,
  "path": {
    "_class": "path",
    "isClosed": true,
    "pointRadiusBehaviour": 1,
    "points": [
      {
        "_class": "curvePoint",
        "cornerRadius": 0,
        "curveFrom": "{0.88936313788253984, 0.575420389749843}",
        "curveMode": 1,
        "curveTo": "{0.88936313788253984, 0.575420389749843}",
        "hasCurveFrom": false,
        "hasCurveTo": false,
        "point": "{0.88936313788253984, 0.575420389749843}"
      },
      {
        "_class": "curvePoint",
        "cornerRadius": 0,
        "curveFrom": "{0.88936313788253984, 0.95333557431698701}",
        "curveMode": 4,
        "curveTo": "{0.88936313788253984, 0.89780490775420152}",
        "hasCurveFrom": true,
        "hasCurveTo": false,
        "point": "{0.88936313788253984, 0.89780490775420152}"
      },
      {
        "_class": "curvePoint",
        "cornerRadius": 0,
        "curveFrom": "{0.79089821217676404, 1}",
        "curveMode": 4,
        "curveTo": "{0.84623550042341, 1}",
        "hasCurveFrom": false,
        "hasCurveTo": true,
        "point": "{0.79089821217676404, 1}"
      },
      {
        "_class": "curvePoint",
        "cornerRadius": 0,
        "curveFrom": "{0.14477136969546262, 1}",
        "curveMode": 4,
        "curveTo": "{0.20010865794210864, 1}",
        "hasCurveFrom": true,
        "hasCurveTo": false,
        "point": "{0.20010865794210864, 1}"
      },
      {
        "_class": "curvePoint",
        "cornerRadius": 0,
        "curveFrom": "{0.10164373223633276, 0.89780490775420152}",
        "curveMode": 4,
        "curveTo": "{0.10164373223633276, 0.95333557431698701}",
        "hasCurveFrom": false,
        "hasCurveTo": true,
        "point": "{0.10164373223633276, 0.89780490775420152}"
      },
      {
        "_class": "curvePoint",
        "cornerRadius": 0,
        "curveFrom": "{0.10164373223633276, 0.575420389749843}",
        "curveMode": 1,
        "curveTo": "{0.10164373223633276, 0.575420389749843}",
        "hasCurveFrom": false,
        "hasCurveTo": false,
        "point": "{0.10164373223633276, 0.575420389749843}"
      },
      {
        "_class": "curvePoint",
        "cornerRadius": 0,
        "curveFrom": "{0.043106701040009424, 0.57543100698190397}",
        "curveMode": 4,
        "curveTo": "{0.0722355410922077, 0.575420389749843}",
        "hasCurveFrom": true,
        "hasCurveTo": false,
        "point": "{0.0722355410922077, 0.575420389749843}"
      },
      {
        "_class": "curvePoint",
        "cornerRadius": 0,
        "curveFrom": "{-0.0056458643640250579, 0.50308119219261871}",
        "curveMode": 2,
        "curveTo": "{0.016824089592565806, 0.5576665026187988}",
        "hasCurveFrom": true,
        "hasCurveTo": true,
        "point": "{0.0055891126142703718, 0.5303738474057087}"
      },
      {
        "_class": "curvePoint",
        "cornerRadius": 0,
        "curveFrom": "{0.020836849873792678, 0.45055971931515243}",
        "curveMode": 4,
        "curveTo": "{0.00036721635158145315, 0.47160578136373954}",
        "hasCurveFrom": false,
        "hasCurveTo": true,
        "point": "{0.020836849873792678, 0.45055971931515243}"
      },
      {
        "_class": "curvePoint",
        "cornerRadius": 0,
        "curveFrom": "{0.44423108383108972, 0.012619833989158375}",
        "curveMode": 4,
        "curveTo": "{0.42552769452453154, 0.034579696083722168}",
        "hasCurveFrom": true,
        "hasCurveTo": false,
        "point": "{0.42552769452453154, 0.034579696083722168}"
      },
      {
        "_class": "curvePoint",
        "cornerRadius": 0,
        "curveFrom": "{0.52859030448837818, 3.7005657017278959e-18}",
        "curveMode": 2,
        "curveTo": "{0.47140969551162182, -3.7005657017278959e-18}",
        "hasCurveFrom": true,
        "hasCurveTo": true,
        "point": "{0.50000000000000011, 0}"
      },
      {
        "_class": "curvePoint",
        "cornerRadius": 0,
        "curveFrom": "{0.57447230547546857, 0.034579696083722154}",
        "curveMode": 4,
        "curveTo": "{0.55576891616891033, 0.012619833989158384}",
        "hasCurveFrom": false,
        "hasCurveTo": true,
        "point": "{0.57447230547546857, 0.034579696083722154}"
      },
      {
        "_class": "curvePoint",
        "cornerRadius": 0,
        "curveFrom": "{0.99963278364841857, 0.47160578136373954}",
        "curveMode": 4,
        "curveTo": "{0.97916315012620736, 0.45055971931515243}",
        "hasCurveFrom": true,
        "hasCurveTo": false,
        "point": "{0.97916315012620736, 0.45055971931515243}"
      },
      {
        "_class": "curvePoint",
        "cornerRadius": 0,
        "curveFrom": "{0.98317591040743435, 0.55766650261879869}",
        "curveMode": 2,
        "curveTo": "{1.0056458643640249, 0.50308119219261871}",
        "hasCurveFrom": true,
        "hasCurveTo": true,
        "point": "{0.9944108873857298, 0.5303738474057087}"
      },
      {
        "_class": "curvePoint",
        "cornerRadius": 0,
        "curveFrom": "{0.92776445890779269, 0.575420389749843}",
        "curveMode": 4,
        "curveTo": "{0.95689329895999087, 0.57543100698190397}",
        "hasCurveFrom": false,
        "hasCurveTo": true,
        "point": "{0.92776445890779269, 0.575420389749843}"
      }
    ]
  },
  "resizingConstraint": 63,
  "resizingType": 0,
  "rotation": 0,
  "shouldBreakMaskChain": false
}