{
  "_class": "shapeGroup",
  "clippingMaskMode": 0,
  "do_objectID": "BFF5ED80-2A07-425F-AD83-7FBAC1B757D4",
  "exportOptions": {
    "_class": "exportOptions",
    "exportFormats": [
    ],
    "includedLayerIds": [
    ],
    "layerOptions": 0,
    "shouldTrim": false
  },
  "frame": {
    "_class": "rect",
    "constrainProportions": false,
    "height": 24,
    "width": 456,
    "x": 0,
    "y": 4
  },
  "hasClickThrough": false,
  "hasClippingMask": false,
  "isFlippedHorizontal": false,
  "isFlippedVertical": false,
  "isLocked": false,
  "isVisible": true,
  "layerListExpandedType": 1,
  "layers": [
    {
      "class": "rectangle",
      "id": "509D5EA4-66EF-4B8F-8E14-B9027A7DA9D9"
    }
  ],
  "name": "Rectangle 5 Copy",
  "nameIsFixed": false,
  "resizingConstraint": 63,
  "resizingType": 0,
  "rotation": 0,
  "shouldBreakMaskChain": false,
  "style": {
    "sharedObjectID": "27A7847E-69B0-49EA-B54C-4BAE6EEA4A3C"
  },
  "windingRule": 1
}