{
  "_class": "shapePath",
  "booleanOperation": 0,
  "do_objectID": "E6CBDC8A-D700-4A0C-A634-DF56E0A767CF",
  "edited": true,
  "exportOptions": {
    "_class": "exportOptions",
    "exportFormats": [
    ],
    "includedLayerIds": [
    ],
    "layerOptions": 0,
    "shouldTrim": false
  },
  "frame": {
    "_class": "rect",
    "constrainProportions": false,
    "height": 16,
    "width": 14,
    "x": 0,
    "y": 0
  },
  "isFlippedHorizontal": false,
  "isFlippedVertical": false,
  "isLocked": false,
  "isVisible": true,
  "layerListExpandedType": 0,
  "name": "Rectangle 41",
  "nameIsFixed": false,
  "path": {
    "_class": "path",
    "isClosed": true,
    "pointRadiusBehaviour": 1,
    "points": [
      {
        "_class": "curvePoint",
        "cornerRadius": 0,
        "curveFrom": "{0.2857142857142857, 0}",
        "curveMode": 4,
        "curveTo": "{0.12791864290548755, 1.8503717077085944e-17}",
        "hasCurveFrom": false,
        "hasCurveTo": true,
        "point": "{0.2857142857142857, 0}"
      },
      {
        "_class": "curvePoint",
        "cornerRadius": 0,
        "curveFrom": "{0.65115852980757083, -1.1102230246251559e-16}",
        "curveMode": 4,
        "curveTo": "{0.61327045983049289, 0}",
        "hasCurveFrom": true,
        "hasCurveTo": false,
        "point": "{0.61327045983049289, 0}"
      },
      {
        "_class": "curvePoint",
        "cornerRadius": 0,
        "curveFrom": "{0.7142857142857143, 0.036611652351681498}",
        "curveMode": 4,
        "curveTo": "{0.68749480307885202, 0.013169605045677046}",
        "hasCurveFrom": false,
        "hasCurveTo": true,
        "point": "{0.7142857142857143, 0.036611652351681498}"
      },
      {
        "_class": "curvePoint",
        "cornerRadius": 0,
        "curveFrom": "{0.98494902280494045, 0.27344204730600424}",
        "curveMode": 4,
        "curveTo": "{0.95815811159807807, 0.24999999999999983}",
        "hasCurveFrom": true,
        "hasCurveTo": false,
        "point": "{0.95815811159807807, 0.24999999999999983}"
      },
      {
        "_class": "curvePoint",
        "cornerRadius": 0,
        "curveFrom": "{1, 0.33838834764831843}",
        "curveMode": 4,
        "curveTo": "{1, 0.30523628641837519}",
        "hasCurveFrom": false,
        "hasCurveTo": true,
        "point": "{1, 0.33838834764831843}"
      },
      {
        "_class": "curvePoint",
        "cornerRadius": 0,
        "curveFrom": "{1, 0.88807118745769831}",
        "curveMode": 4,
        "curveTo": "{1, 0.75}",
        "hasCurveFrom": true,
        "hasCurveTo": false,
        "point": "{1, 0.75}"
      },
      {
        "_class": "curvePoint",
        "cornerRadius": 0,
        "curveFrom": "{0.7142857142857143, 1}",
        "curveMode": 4,
        "curveTo": "{0.8720813570945124, 1}",
        "hasCurveFrom": false,
        "hasCurveTo": true,
        "point": "{0.7142857142857143, 1}"
      },
      {
        "_class": "curvePoint",
        "cornerRadius": 0,
        "curveFrom": "{0.12791864290548755, 1}",
        "curveMode": 4,
        "curveTo": "{0.2857142857142857, 1}",
        "hasCurveFrom": true,
        "hasCurveTo": false,
        "point": "{0.2857142857142857, 1}"
      },
      {
        "_class": "curvePoint",
        "cornerRadius": 0,
        "curveFrom": "{0, 0.75}",
        "curveMode": 4,
        "curveTo": "{0, 0.88807118745769831}",
        "hasCurveFrom": false,
        "hasCurveTo": true,
        "point": "{0, 0.75}"
      },
      {
        "_class": "curvePoint",
        "cornerRadius": 0,
        "curveFrom": "{-2.3790493384824782e-17, 0.11192881254230166}",
        "curveMode": 4,
        "curveTo": "{0, 0.25}",
        "hasCurveFrom": true,
        "hasCurveTo": false,
        "point": "{0, 0.25}"
      }
    ]
  },
  "resizingConstraint": 63,
  "resizingType": 0,
  "rotation": 0,
  "shouldBreakMaskChain": false
}